{
  "type": "service_account",
  "project_id": "calc-app-831b8",
  "private_key_id": "a8efa86694e369800fbef37ec68036186754778e",
  "private_key": "-----BEGIN PRIVATE KEY-----\nMIIEvgIBADANBgkqhkiG9w0BAQEFAASCBKgwggSkAgEAAoIBAQC4FRKh6NmiKNeh\nRUaHntlumA9bAadSPq0RxHBEtspwZjcJCArt5A/NtOfiNpV8Wz2b8Ojgwhdy68fV\n5CKlasGfk1BCqDRZq7uhHbolINzsqoCeiu/NojqeN49PYTEyC9qka+ynDr7ziKek\nJanpyej29LkXrTB96+e1d+3BLt/yALlKBlGyyBrYqmFk9NvN3ANwuXYK2Ma8q7ti\nKp5TtGWV3V15ogfWBm3AueNOpHwNd83vWB+wJ+bjtfiGGOmE+qprmhzuvezk9fbe\nybquo6L+L1rF33Maec9OsMvFyRq6WPlmY/1wH5TtyeXjZ7O3oktTT7iL+yq8JTAO\naesNDzm/AgMBAAECggEAcaR4w0HoEYcbT7Ff0FwNqYvwduN3c3vEBqL6GEGsimVf\n9pBjhudzpi/Xs7y03nfJehro+dB4/3Z2ASL9DJfyftxIAU6sOuudQuMCRueZ2/WK\nv9XQI2fSvlhYfc3nvBi7WyRRjfS5h8lGjTy/P9hpnQQJvIcr16Eqg8pNGiUhFdm0\nt1OfWV4ysudGAMNFn7I053lPl4eRXYq/b2vTEPcpR/0wzlRXOdB+1PbI/EgMqTEe\nKNqK7fFoobIylIpCeXMWu9xfXXOCAoT0Z5DLKvCnZEqINMGkBjh4rRhqzRLY93kv\nleJFCli3JgfN3iEa9O1pLAuTVx7ZBDUluw+OyeF0SQKBgQDzpX9rXfsgWwUsOq7g\nDmBEQ5rx7DzuF7HZ2l2/H10HX0Uj4f6447uiJjzI9k9bg68vh+O1B7Gcy6VJAkTq\nV26gM2Pv/c89LWQByNEIxEshR/YTJvbvkO9Eh5qZA9xfSnxGzmXzrWro+TWdEnoC\nvMaDT2I0nynlnSho9Es9XcRlPQKBgQDBanB4nuJ6gYfRSXjVjliObPrvznVrsT6D\nrNh0SrUJhSisoJv3EHaDdkKtE64ab+S0LuVkw6E3l5Av6X3JNQQgWMct0l8yepMF\nVm1nyqwDdjDmLvItWK2Lv56rC2NThSi9aCOhMK8H5n0JyhUZCJ/l8oXRz5VuVLzS\nIrxlYPuiqwKBgQDf1q7ORAQ/wH9rF+qrO2njrTx/f6qmjqw9WemAed7ss/EAO1La\nJ5atLHXxpqBXkg5zG2PuX8gkJc+O2H/Zz0N5+FybElG/gaD8JrMsW7IuPD9tbwG0\nLDI1gmNcqnheLz8nid2OVkb/DFzeFihztVynLForwAIsygpjCfTJxwh0fQKBgGEz\nxOJZtygqAL/FVNy+dPLfAh2SfKBqqygxrXaENQdbzF01OiyoMWdP/6JLyauvoBiN\nmOtTBaqSmPv7NCPyaOh4tWDp4L3VrB16mfEXgesbcue7oCn57v3Uh0EesARBX4AQ\n3hccCFrIEv7geEnkc7d0cpxG3qpcG6jfnB625r+RAoGBAL79g736GLEDEQvjpbRG\nlY10GB14fZvTIUnuHEyrCh6gl1+CTT4g8HWcmXo/3Yp7Ebs4noz/AWI/+Cp15lY+\npVFOQWMC2SIjos1vF86XKEKynKhXCOU6t3QbLDjHNRIKMYJRuwrYqG9GZPBT+bTC\nJdMDIu1MhMWQVv56mk6uBCz9\n-----END PRIVATE KEY-----\n",
  "client_email": "lhs-calc-server@calc-app-831b8.iam.gserviceaccount.com",
  "client_id": "104308789008355935287",
  "auth_uri": "https://accounts.google.com/o/oauth2/auth",
  "token_uri": "https://accounts.google.com/o/oauth2/token",
  "auth_provider_x509_cert_url": "https://www.googleapis.com/oauth2/v1/certs",
  "client_x509_cert_url": "https://www.googleapis.com/robot/v1/metadata/x509/lhs-calc-server%40calc-app-831b8.iam.gserviceaccount.com"
}
